[
  {
    "line": 2,
    "elements": [
      {
        "line": 4,
        "name": "The user want to see my product list",
        "description": "",
        "id": "daftarjualsaya;the-user-want-to-see-my-product-list",
        "type": "scenario",
        "keyword": "Scenario",
        "steps": [
          {
            "result": {
              "duration": 1186233900,
              "status": "passed"
            },
            "line": 5,
            "name": "the user is in my account menu page",
            "match": {
              "location": "daftarjualsaya.the_user_is_on_my_account_menupage()"
            },
            "keyword": "Given "
          },
          {
            "result": {
              "duration": 1215627300,
              "status": "passed"
            },
            "line": 6,
            "name": "the user choose my product list button",
            "match": {
              "location": "daftarjualsaya.the_user_click_my_product_list_button()"
            },
            "keyword": "When "
          },
          {
            "result": {
              "duration": 2551456300,
              "status": "passed"
            },
            "line": 7,
            "name": "the user is navigated to my product list to see the list",
            "match": {
              "location": "daftarjualsaya.the_user_is_navigated_to_my_product_list_app_page()"
            },
            "keyword": "Then "
          }
        ]
      }
    ],
    "name": "daftarjualsaya",
    "description": "",
    "id": "daftarjualsaya",
    "keyword": "Feature",
    "uri": "C:/Users/wrkng/Desktop/Platinum challange/android/challange-android-secondhand/Include/features/daftarjualsaya.feature",
    "tags": []
  }
]