[
  {
    "line": 1,
    "elements": [
      {
        "line": 3,
        "name": "User want to logout app",
        "description": "",
        "id": "dlogout;user-want-to-logout-app",
        "type": "scenario",
        "keyword": "Scenario",
        "steps": [
          {
            "result": {
              "duration": 1779873800,
              "status": "passed"
            },
            "line": 4,
            "name": "the user press menu account buttin",
            "match": {
              "location": "dlogout.navigateToLogin_Page()"
            },
            "keyword": "Given "
          },
          {
            "result": {
              "duration": 1588294000,
              "status": "passed"
            },
            "line": 5,
            "name": "the user press logout button",
            "match": {
              "location": "dlogout.user_klik_logout()"
            },
            "keyword": "When "
          },
          {
            "result": {
              "duration": 9064476100,
              "status": "passed"
            },
            "line": 6,
            "name": "the user navigated to homepage app to verify logout",
            "match": {
              "location": "dlogout.user_is_navigated_on_logout()"
            },
            "keyword": "Then "
          }
        ]
      }
    ],
    "name": "dlogout",
    "description": "",
    "id": "dlogout",
    "keyword": "Feature",
    "uri": "C:/Users/wrkng/Desktop/Platinum challange/android/challange-android-secondhand/Include/features/dlogout.feature",
    "tags": []
  }
]