[
  {
    "line": 2,
    "elements": [
      {
        "BDD_TESTRUN_UUID": "d059b94d-3230-40cc-a639-df03645ba00f",
        "line": 4,
        "name": "The user want to see my interested product list",
        "description": "",
        "id": "interested-product-list;the-user-want-to-see-my-interested-product-list",
        "type": "scenario",
        "keyword": "Scenario",
        "steps": [
          {
            "result": {
              "duration": 1158251500,
              "status": "passed"
            },
            "line": 5,
            "name": "the user is on the app my account page",
            "match": {
              "location": "diminati.the_user_is_navigated_to_themyaccountpage()"
            },
            "keyword": "Given ",
            "BDD_STEP_UUID": "510a2772-f03e-4855-82ad-aee742ce0d71"
          },
          {
            "result": {
              "duration": 1294552500,
              "status": "passed"
            },
            "line": 6,
            "name": "the user click my product list menu",
            "match": {
              "location": "diminati.the_user_click_myproductlist()"
            },
            "keyword": "When ",
            "BDD_STEP_UUID": "dd60f2eb-d6b1-4d11-bcef-b86678127fa4"
          },
          {
            "result": {
              "duration": 2347821000,
              "status": "passed"
            },
            "line": 7,
            "name": "the user click my interested product section",
            "match": {
              "location": "diminati.the_user_click_my_intersted_product_section()"
            },
            "keyword": "And ",
            "BDD_STEP_UUID": "a7d02358-e02d-47c1-ac2e-f06d8e10ba5e"
          },
          {
            "result": {
              "duration": 3957657000,
              "status": "passed"
            },
            "line": 8,
            "name": "the user is navigated to my interested product page",
            "match": {
              "location": "diminati.the_user_is_navigated_to_my_interested_product_page()"
            },
            "keyword": "Then ",
            "BDD_STEP_UUID": "fd2a4b8b-a9ed-4feb-ae2f-f800d8adedd6"
          }
        ]
      }
    ],
    "name": "interested product list",
    "description": "",
    "id": "interested-product-list",
    "keyword": "Feature",
    "uri": "C:/Users/wrkng/Desktop/Platinum challange/android/challange-android-secondhand/Include/features/diminati.feature",
    "tags": []
  }
]