[
  {
    "line": 1,
    "elements": [
      {
        "BDD_TESTRUN_UUID": "02022e6d-0bb1-4843-8443-4c5b979f3a0a",
        "line": 3,
        "name": "User want to login with data valid",
        "description": "",
        "id": "login-feature;user-want-to-login-with-data-valid",
        "type": "scenario",
        "keyword": "Scenario",
        "steps": [
          {
            "result": {
              "duration": 43504789100,
              "status": "passed"
            },
            "line": 4,
            "name": "user open app mobile",
            "match": {
              "location": "loginstep.navigateToLoginPage()"
            },
            "keyword": "Given ",
            "BDD_STEP_UUID": "1323f353-dc40-4114-bb88-f212fa5ace8f"
          },
          {
            "result": {
              "duration": 10036188400,
              "status": "passed"
            },
            "line": 5,
            "name": "user enter username and password",
            "match": {
              "location": "loginstep.user_enter_username_and_password()"
            },
            "keyword": "When ",
            "BDD_STEP_UUID": "d30ce682-9506-4241-9393-bf58e8c860ed"
          },
          {
            "result": {
              "duration": 6610795300,
              "status": "passed"
            },
            "line": 6,
            "name": "user open login mobile",
            "match": {
              "location": "loginstep.user_is_navigated_on_homepage()"
            },
            "keyword": "Then ",
            "BDD_STEP_UUID": "6c9a9fd6-9e73-45d3-ad7e-3fc3ba66a1cd"
          }
        ]
      }
    ],
    "name": "Login Feature",
    "description": "",
    "id": "login-feature",
    "keyword": "Feature",
    "uri": "C:/Users/wrkng/Desktop/Platinum challange/android/challange-android-secondhand/Include/features/login.feature",
    "tags": []
  }
]